ACA_LABS/LAB_ACA_2/Lab2_Decoder/Lab2_Decoder.sim/sim_1/behav/xsim/simulate.log
Vivado Simulator 2018.3
Time resolution is 1 ps
IN4: 0000 --> OUT16: 0000000000000001 | IN3: 000 --> OUT8: 00000001
IN4: 0001 --> OUT16: 0000000000000010 | IN3: 001 --> OUT8: 00000010
IN4: 0010 --> OUT16: 0000000000000100 | IN3: 010 --> OUT8: 00000100
IN4: 0011 --> OUT16: 0000000000001000 | IN3: 011 --> OUT8: 00001000
IN4: 0100 --> OUT16: 0000000000010000 | IN3: 100 --> OUT8: 00010000
IN4: 0101 --> OUT16: 0000000000100000 | IN3: 101 --> OUT8: 00100000
IN4: 0110 --> OUT16: 0000000001000000 | IN3: 110 --> OUT8: 01000000
IN4: 0111 --> OUT16: 0000000010000000 | IN3: 111 --> OUT8: 10000000
IN4: 1000 --> OUT16: 0000000100000000 | IN3: 000 --> OUT8: 00000001
IN4: 1001 --> OUT16: 0000001000000000 | IN3: 001 --> OUT8: 00000010
IN4: 1010 --> OUT16: 0000010000000000 | IN3: 010 --> OUT8: 00000100
IN4: 1011 --> OUT16: 0000100000000000 | IN3: 011 --> OUT8: 00001000
IN4: 1100 --> OUT16: 0001000000000000 | IN3: 100 --> OUT8: 00010000
IN4: 1101 --> OUT16: 0010000000000000 | IN3: 101 --> OUT8: 00100000
IN4: 1110 --> OUT16: 0100000000000000 | IN3: 110 --> OUT8: 01000000
IN4: 1111 --> OUT16: 1000000000000000 | IN3: 111 --> OUT8: 10000000
IN4: 0000 --> OUT16: 0000000000000001 | IN3: 000 --> OUT8: 00000001
IN4: 0001 --> OUT16: 0000000000000010 | IN3: 001 --> OUT8: 00000010
IN4: 0010 --> OUT16: 0000000000000100 | IN3: 010 --> OUT8: 00000100
IN4: 0011 --> OUT16: 0000000000001000 | IN3: 011 --> OUT8: 00001000
IN4: 0100 --> OUT16: 0000000000010000 | IN3: 100 --> OUT8: 00010000
IN4: 0101 --> OUT16: 0000000000100000 | IN3: 101 --> OUT8: 00100000
IN4: 0110 --> OUT16: 0000000001000000 | IN3: 110 --> OUT8: 01000000
IN4: 0111 --> OUT16: 0000000010000000 | IN3: 111 --> OUT8: 10000000
IN4: 1000 --> OUT16: 0000000100000000 | IN3: 000 --> OUT8: 00000001
IN4: 1001 --> OUT16: 0000001000000000 | IN3: 001 --> OUT8: 00000010
IN4: 1010 --> OUT16: 0000010000000000 | IN3: 010 --> OUT8: 00000100
IN4: 1011 --> OUT16: 0000100000000000 | IN3: 011 --> OUT8: 00001000
IN4: 1100 --> OUT16: 0001000000000000 | IN3: 100 --> OUT8: 00010000
IN4: 1101 --> OUT16: 0010000000000000 | IN3: 101 --> OUT8: 00100000
IN4: 1110 --> OUT16: 0100000000000000 | IN3: 110 --> OUT8: 01000000
IN4: 1111 --> OUT16: 1000000000000000 | IN3: 111 --> OUT8: 10000000
IN4: 0000 --> OUT16: 0000000000000001 | IN3: 000 --> OUT8: 00000001
IN4: 0001 --> OUT16: 0000000000000010 | IN3: 001 --> OUT8: 00000010
IN4: 0010 --> OUT16: 0000000000000100 | IN3: 010 --> OUT8: 00000100
IN4: 0011 --> OUT16: 0000000000001000 | IN3: 011 --> OUT8: 00001000
IN4: 0100 --> OUT16: 0000000000010000 | IN3: 100 --> OUT8: 00010000
IN4: 0101 --> OUT16: 0000000000100000 | IN3: 101 --> OUT8: 00100000
IN4: 0110 --> OUT16: 0000000001000000 | IN3: 110 --> OUT8: 01000000
IN4: 0111 --> OUT16: 0000000010000000 | IN3: 111 --> OUT8: 10000000
IN4: 1000 --> OUT16: 0000000100000000 | IN3: 000 --> OUT8: 00000001
IN4: 1001 --> OUT16: 0000001000000000 | IN3: 001 --> OUT8: 00000010
IN4: 1010 --> OUT16: 0000010000000000 | IN3: 010 --> OUT8: 00000100
IN4: 1011 --> OUT16: 0000100000000000 | IN3: 011 --> OUT8: 00001000
IN4: 1100 --> OUT16: 0001000000000000 | IN3: 100 --> OUT8: 00010000
IN4: 1101 --> OUT16: 0010000000000000 | IN3: 101 --> OUT8: 00100000
IN4: 1110 --> OUT16: 0100000000000000 | IN3: 110 --> OUT8: 01000000
IN4: 1111 --> OUT16: 1000000000000000 | IN3: 111 --> OUT8: 10000000
IN4: 0000 --> OUT16: 0000000000000001 | IN3: 000 --> OUT8: 00000001
IN4: 0001 --> OUT16: 0000000000000010 | IN3: 001 --> OUT8: 00000010
IN4: 0010 --> OUT16: 0000000000000100 | IN3: 010 --> OUT8: 00000100
